%YAML 1.1
%TAG !u! tag:unity3d.com,2011:
--- !u!74 &7400000
AnimationClip:
  m_ObjectHideFlags: 0
  m_CorrespondingSourceObject: {fileID: 0}
  m_PrefabInstance: {fileID: 0}
  m_PrefabAsset: {fileID: 0}
  m_Name: Coin2
  serializedVersion: 6
  m_Legacy: 0
  m_Compressed: 0
  m_UseHighQualityCurve: 1
  m_RotationCurves: []
  m_CompressedRotationCurves: []
  m_EulerCurves: []
  m_PositionCurves: []
  m_ScaleCurves: []
  m_FloatCurves: []
  m_PPtrCurves:
  - curve:
    - time: 0
      value: {fileID: -1758298964, guid: 7d5534a8588f8f6418620d9664e7e184, type: 3}
    - time: 0.083333336
      value: {fileID: 962982025, guid: 7d5534a8588f8f6418620d9664e7e184, type: 3}
    - time: 0.16666667
      value: {fileID: -784254601, guid: 7d5534a8588f8f6418620d9664e7e184, type: 3}
    - time: 0.25
      value: {fileID: 876620190, guid: 7d5534a8588f8f6418620d9664e7e184, type: 3}
    - time: 0.33333334
      value: {fileID: 1635791585, guid: 7d5534a8588f8f6418620d9664e7e184, type: 3}
    - time: 0.41666666
      value: {fileID: 1979633342, guid: 7d5534a8588f8f6418620d9664e7e184, type: 3}
    - time: 0.5
      value: {fileID: -1890731410, guid: 7d5534a8588f8f6418620d9664e7e184, type: 3}
    - time: 0.5833333
      value: {fileID: 180987803, guid: 7d5534a8588f8f6418620d9664e7e184, type: 3}
    - time: 0.6666667
      value: {fileID: 769879415, guid: 7d5534a8588f8f6418620d9664e7e184, type: 3}
    - time: 0.75
      value: {fileID: -1180415730, guid: 7d5534a8588f8f6418620d9664e7e184, type: 3}
    - time: 0.8333333
      value: {fileID: -2086004101, guid: 7d5534a8588f8f6418620d9664e7e184, type: 3}
    - time: 0.9166667
      value: {fileID: -376327394, guid: 7d5534a8588f8f6418620d9664e7e184, type: 3}
    - time: 1
      value: {fileID: -1183115479, guid: 7d5534a8588f8f6418620d9664e7e184, type: 3}
    attribute: m_Sprite
    path: 
    classID: 212
    script: {fileID: 0}
  m_SampleRate: 12
  m_WrapMode: 0
  m_Bounds:
    m_Center: {x: 0, y: 0, z: 0}
    m_Extent: {x: 0, y: 0, z: 0}
  m_ClipBindingConstant:
    genericBindings:
    - serializedVersion: 2
      path: 0
      attribute: 0
      script: {fileID: 0}
      typeID: 212
      customType: 23
      isPPtrCurve: 1
    pptrCurveMapping:
    - {fileID: -1758298964, guid: 7d5534a8588f8f6418620d9664e7e184, type: 3}
    - {fileID: 962982025, guid: 7d5534a8588f8f6418620d9664e7e184, type: 3}
    - {fileID: -784254601, guid: 7d5534a8588f8f6418620d9664e7e184, type: 3}
    - {fileID: 876620190, guid: 7d5534a8588f8f6418620d9664e7e184, type: 3}
    - {fileID: 1635791585, guid: 7d5534a8588f8f6418620d9664e7e184, type: 3}
    - {fileID: 1979633342, guid: 7d5534a8588f8f6418620d9664e7e184, type: 3}
    - {fileID: -1890731410, guid: 7d5534a8588f8f6418620d9664e7e184, type: 3}
    - {fileID: 180987803, guid: 7d5534a8588f8f6418620d9664e7e184, type: 3}
    - {fileID: 769879415, guid: 7d5534a8588f8f6418620d9664e7e184, type: 3}
    - {fileID: -1180415730, guid: 7d5534a8588f8f6418620d9664e7e184, type: 3}
    - {fileID: -2086004101, guid: 7d5534a8588f8f6418620d9664e7e184, type: 3}
    - {fileID: -376327394, guid: 7d5534a8588f8f6418620d9664e7e184, type: 3}
    - {fileID: -1183115479, guid: 7d5534a8588f8f6418620d9664e7e184, type: 3}
  m_AnimationClipSettings:
    serializedVersion: 2
    m_AdditiveReferencePoseClip: {fileID: 0}
    m_AdditiveReferencePoseTime: 0
    m_StartTime: 0
    m_StopTime: 1.0833334
    m_OrientationOffsetY: 0
    m_Level: 0
    m_CycleOffset: 0
    m_HasAdditiveReferencePose: 0
    m_LoopTime: 0
    m_LoopBlend: 0
    m_LoopBlendOrientation: 0
    m_LoopBlendPositionY: 0
    m_LoopBlendPositionXZ: 0
    m_KeepOriginalOrientation: 0
    m_KeepOriginalPositionY: 1
    m_KeepOriginalPositionXZ: 0
    m_HeightFromFeet: 0
    m_Mirror: 0
  m_EditorCurves: []
  m_EulerEditorCurves: []
  m_HasGenericRootTransform: 0
  m_HasMotionFloatCurves: 0
  m_Events: []
