%YAML 1.1
%TAG !u! tag:unity3d.com,2011:
--- !u!74 &7400000
AnimationClip:
  m_ObjectHideFlags: 0
  m_CorrespondingSourceObject: {fileID: 0}
  m_PrefabInstance: {fileID: 0}
  m_PrefabAsset: {fileID: 0}
  m_Name: Coin
  serializedVersion: 6
  m_Legacy: 0
  m_Compressed: 0
  m_UseHighQualityCurve: 1
  m_RotationCurves: []
  m_CompressedRotationCurves: []
  m_EulerCurves: []
  m_PositionCurves: []
  m_ScaleCurves: []
  m_FloatCurves: []
  m_PPtrCurves:
  - curve:
    - time: 0
      value: {fileID: -1776683408, guid: 032935dd535260944b11f4abd47e71b0, type: 3}
    - time: 0.083333336
      value: {fileID: 885205259, guid: 032935dd535260944b11f4abd47e71b0, type: 3}
    - time: 0.16666667
      value: {fileID: -401761786, guid: 032935dd535260944b11f4abd47e71b0, type: 3}
    - time: 0.25
      value: {fileID: 206497409, guid: 032935dd535260944b11f4abd47e71b0, type: 3}
    - time: 0.33333334
      value: {fileID: -1627780241, guid: 032935dd535260944b11f4abd47e71b0, type: 3}
    - time: 0.41666666
      value: {fileID: 964142756, guid: 032935dd535260944b11f4abd47e71b0, type: 3}
    - time: 0.5
      value: {fileID: -900057815, guid: 032935dd535260944b11f4abd47e71b0, type: 3}
    - time: 0.5833333
      value: {fileID: 1788659921, guid: 032935dd535260944b11f4abd47e71b0, type: 3}
    - time: 0.6666667
      value: {fileID: -1019309404, guid: 032935dd535260944b11f4abd47e71b0, type: 3}
    - time: 0.75
      value: {fileID: -548941029, guid: 032935dd535260944b11f4abd47e71b0, type: 3}
    - time: 0.8333333
      value: {fileID: -1198688114, guid: 032935dd535260944b11f4abd47e71b0, type: 3}
    - time: 0.9166667
      value: {fileID: -1745770539, guid: 032935dd535260944b11f4abd47e71b0, type: 3}
    - time: 1
      value: {fileID: -364155846, guid: 032935dd535260944b11f4abd47e71b0, type: 3}
    - time: 1.0833334
      value: {fileID: -198186561, guid: 032935dd535260944b11f4abd47e71b0, type: 3}
    - time: 1.1666666
      value: {fileID: 276526247, guid: 032935dd535260944b11f4abd47e71b0, type: 3}
    - time: 1.25
      value: {fileID: -1098699595, guid: 032935dd535260944b11f4abd47e71b0, type: 3}
    - time: 1.3333334
      value: {fileID: 664042337, guid: 032935dd535260944b11f4abd47e71b0, type: 3}
    - time: 1.4166666
      value: {fileID: -1671896315, guid: 032935dd535260944b11f4abd47e71b0, type: 3}
    attribute: m_Sprite
    path: 
    classID: 212
    script: {fileID: 0}
  m_SampleRate: 12
  m_WrapMode: 0
  m_Bounds:
    m_Center: {x: 0, y: 0, z: 0}
    m_Extent: {x: 0, y: 0, z: 0}
  m_ClipBindingConstant:
    genericBindings:
    - serializedVersion: 2
      path: 0
      attribute: 0
      script: {fileID: 0}
      typeID: 212
      customType: 23
      isPPtrCurve: 1
    pptrCurveMapping:
    - {fileID: -1776683408, guid: 032935dd535260944b11f4abd47e71b0, type: 3}
    - {fileID: 885205259, guid: 032935dd535260944b11f4abd47e71b0, type: 3}
    - {fileID: -401761786, guid: 032935dd535260944b11f4abd47e71b0, type: 3}
    - {fileID: 206497409, guid: 032935dd535260944b11f4abd47e71b0, type: 3}
    - {fileID: -1627780241, guid: 032935dd535260944b11f4abd47e71b0, type: 3}
    - {fileID: 964142756, guid: 032935dd535260944b11f4abd47e71b0, type: 3}
    - {fileID: -900057815, guid: 032935dd535260944b11f4abd47e71b0, type: 3}
    - {fileID: 1788659921, guid: 032935dd535260944b11f4abd47e71b0, type: 3}
    - {fileID: -1019309404, guid: 032935dd535260944b11f4abd47e71b0, type: 3}
    - {fileID: -548941029, guid: 032935dd535260944b11f4abd47e71b0, type: 3}
    - {fileID: -1198688114, guid: 032935dd535260944b11f4abd47e71b0, type: 3}
    - {fileID: -1745770539, guid: 032935dd535260944b11f4abd47e71b0, type: 3}
    - {fileID: -364155846, guid: 032935dd535260944b11f4abd47e71b0, type: 3}
    - {fileID: -198186561, guid: 032935dd535260944b11f4abd47e71b0, type: 3}
    - {fileID: 276526247, guid: 032935dd535260944b11f4abd47e71b0, type: 3}
    - {fileID: -1098699595, guid: 032935dd535260944b11f4abd47e71b0, type: 3}
    - {fileID: 664042337, guid: 032935dd535260944b11f4abd47e71b0, type: 3}
    - {fileID: -1671896315, guid: 032935dd535260944b11f4abd47e71b0, type: 3}
  m_AnimationClipSettings:
    serializedVersion: 2
    m_AdditiveReferencePoseClip: {fileID: 0}
    m_AdditiveReferencePoseTime: 0
    m_StartTime: 0
    m_StopTime: 1.5
    m_OrientationOffsetY: 0
    m_Level: 0
    m_CycleOffset: 0
    m_HasAdditiveReferencePose: 0
    m_LoopTime: 1
    m_LoopBlend: 0
    m_LoopBlendOrientation: 0
    m_LoopBlendPositionY: 0
    m_LoopBlendPositionXZ: 0
    m_KeepOriginalOrientation: 0
    m_KeepOriginalPositionY: 1
    m_KeepOriginalPositionXZ: 0
    m_HeightFromFeet: 0
    m_Mirror: 0
  m_EditorCurves: []
  m_EulerEditorCurves: []
  m_HasGenericRootTransform: 0
  m_HasMotionFloatCurves: 0
  m_Events: []
