%YAML 1.1
%TAG !u! tag:unity3d.com,2011:
--- !u!1045 &1
EditorBuildSettings:
  m_ObjectHideFlags: 0
  serializedVersion: 2
  m_Scenes:
  - enabled: 1
    path: Assets/Scenes/Level2.unity
    guid: 5ce79d17a7edad346ae9cf958df24fb2
  - enabled: 1
    path: Assets/Scenes/Level3.unity
    guid: 50327be8c725ce341aa85e3666b75fc3
  - enabled: 1
    path: Assets/Scenes/Level1.unity
    guid: 2cda990e2423bbf4892e6590ba056729
  - enabled: 1
    path: Assets/Scenes/Level4.unity
    guid: ac767c4b4ecc79049b5dc220cdd27595
  m_configObjects: {}
